\babel@toc {russian}{}
\contentsline {section}{\numberline {1}\IeC {\CYRV }\IeC {\cyrv }\IeC {\cyre }\IeC {\cyrd }\IeC {\cyre }\IeC {\cyrn }\IeC {\cyri }\IeC {\cyre }}{4}{section.1}
\contentsline {section}{\numberline {2}\IeC {\CYRC }\IeC {\cyre }\IeC {\cyrl }\IeC {\cyrsftsn } \IeC {\cyrr }\IeC {\cyra }\IeC {\cyrb }\IeC {\cyro }\IeC {\cyrt }\IeC {\cyrery }}{6}{section.2}
\contentsline {section}{\numberline {3}\IeC {\CYRO }\IeC {\cyrs }\IeC {\cyrn }\IeC {\cyro }\IeC {\cyrv }\IeC {\cyrn }\IeC {\cyrery }\IeC {\cyre } \IeC {\cyro }\IeC {\cyrp }\IeC {\cyrr }\IeC {\cyre }\IeC {\cyrd }\IeC {\cyre }\IeC {\cyrl }\IeC {\cyre }\IeC {\cyrn }\IeC {\cyri }\IeC {\cyrya } \IeC {\cyri } \IeC {\cyrm }\IeC {\cyra }\IeC {\cyrt }\IeC {\cyre }\IeC {\cyrm }\IeC {\cyra }\IeC {\cyrt }\IeC {\cyri }\IeC {\cyrch }\IeC {\cyre }\IeC {\cyrs }\IeC {\cyrk }\IeC {\cyra }\IeC {\cyrya } \IeC {\cyrm }\IeC {\cyro }\IeC {\cyrd }\IeC {\cyre }\IeC {\cyrl }\IeC {\cyrsftsn }}{7}{section.3}
\contentsline {subsection}{\numberline {3.1}\IeC {\CYRT }\IeC {\cyre }\IeC {\cyro }\IeC {\cyrr }\IeC {\cyri }\IeC {\cyrya } \IeC {\cyrg }\IeC {\cyrr }\IeC {\cyra }\IeC {\cyrf }\IeC {\cyro }\IeC {\cyrv }}{7}{subsection.3.1}
\contentsline {subsection}{\numberline {3.2}\IeC {\CYRM }\IeC {\cyro }\IeC {\cyrd }\IeC {\cyre }\IeC {\cyrl }\IeC {\cyrsftsn } \IeC {\CYRF }\IeC {\cyrr }\IeC {\cyre }\IeC {\cyrn }\IeC {\cyrch }-\IeC {\cyrd }\IeC {\cyre }\IeC {\CYRG }\IeC {\cyrr }\IeC {\cyro }\IeC {\cyro }\IeC {\cyrt }\IeC {\cyra }}{8}{subsection.3.2}
\contentsline {subsubsection}{\numberline {3.2.1}\IeC {\CYRN }\IeC {\cyre }\IeC {\cyrp }\IeC {\cyrr }\IeC {\cyre }\IeC {\cyrr }\IeC {\cyrery }\IeC {\cyrv }\IeC {\cyrn }\IeC {\cyra }\IeC {\cyrya } \IeC {\cyrm }\IeC {\cyro }\IeC {\cyrd }\IeC {\cyre }\IeC {\cyrl }\IeC {\cyrsftsn }}{9}{subsubsection.3.2.1}
\contentsline {subsection}{\numberline {3.3}\IeC {\CYRO }\IeC {\cyrp }\IeC {\cyri }\IeC {\cyrs }\IeC {\cyra }\IeC {\cyrn }\IeC {\cyri }\IeC {\cyre } \IeC {\cyrs }\IeC {\cyri }\IeC {\cyrs }\IeC {\cyrt }\IeC {\cyre }\IeC {\cyrm }\IeC {\cyrery }}{9}{subsection.3.3}
\contentsline {subsection}{\numberline {3.4}\IeC {\CYRS }\IeC {\cyrh }\IeC {\cyro }\IeC {\cyrd }\IeC {\cyri }\IeC {\cyrm }\IeC {\cyro }\IeC {\cyrs }\IeC {\cyrt }\IeC {\cyrsftsn } \IeC {\cyra }\IeC {\cyrl }\IeC {\cyrg }\IeC {\cyro }\IeC {\cyrr }\IeC {\cyri }\IeC {\cyrt }\IeC {\cyrm }\IeC {\cyra } \IeC {\cyrk }\IeC {\cyro }\IeC {\cyrn }\IeC {\cyrs }\IeC {\cyre }\IeC {\cyrn }\IeC {\cyrs }\IeC {\cyru }\IeC {\cyrs }\IeC {\cyra }}{10}{subsection.3.4}
\contentsline {subsection}{\numberline {3.5}\IeC {\CYRP }\IeC {\cyro }\IeC {\cyrs }\IeC {\cyrt }\IeC {\cyra }\IeC {\cyrn }\IeC {\cyro }\IeC {\cyrv }\IeC {\cyrk }\IeC {\cyra } \IeC {\cyrz }\IeC {\cyra }\IeC {\cyrd }\IeC {\cyra }\IeC {\cyrch }\IeC {\cyri } \IeC {\cyrv }\IeC {\cyrery }\IeC {\cyrb }\IeC {\cyro }\IeC {\cyrr }\IeC {\cyra } \IeC {\cyrl }\IeC {\cyri }\IeC {\cyrd }\IeC {\cyre }\IeC {\cyrr }\IeC {\cyro }\IeC {\cyrv }}{10}{subsection.3.5}
\contentsline {subsubsection}{\numberline {3.5.1}\IeC {\CYRT }\IeC {\cyre }\IeC {\cyro }\IeC {\cyrr }\IeC {\cyre }\IeC {\cyrt }\IeC {\cyri }\IeC {\cyrch }\IeC {\cyre }\IeC {\cyrs }\IeC {\cyrk }\IeC {\cyri }\IeC {\cyre } \IeC {\cyrr }\IeC {\cyre }\IeC {\cyrz }\IeC {\cyru }\IeC {\cyrl }\IeC {\cyrsftsn }\IeC {\cyrt }\IeC {\cyra }\IeC {\cyrt }\IeC {\cyrery }}{10}{subsubsection.3.5.1}
\contentsline {subsubsection}{\numberline {3.5.2}\IeC {\CYRA }\IeC {\cyrl }\IeC {\cyrg }\IeC {\cyro }\IeC {\cyrr }\IeC {\cyri }\IeC {\cyrt }\IeC {\cyrm } \IeC {\cyrv }\IeC {\cyrery }\IeC {\cyrb }\IeC {\cyro }\IeC {\cyrr }\IeC {\cyra } \IeC {\cyrl }\IeC {\cyri }\IeC {\cyrd }\IeC {\cyre }\IeC {\cyrr }\IeC {\cyro }\IeC {\cyrv }}{12}{subsubsection.3.5.2}
\contentsline {subsection}{\numberline {3.6}\IeC {\CYRB }\IeC {\cyre }\IeC {\cyrl }\IeC {\cyrery }\IeC {\cyrishrt } \IeC {\cyrsh }\IeC {\cyru }\IeC {\cyrm } \IeC {\cyrv } \IeC {\cyrs }\IeC {\cyri }\IeC {\cyrs }\IeC {\cyrt }\IeC {\cyre }\IeC {\cyrm }\IeC {\cyre }}{13}{subsection.3.6}
\contentsline {section}{\numberline {4}\IeC {\CYRO }\IeC {\cyrp }\IeC {\cyri }\IeC {\cyrs }\IeC {\cyra }\IeC {\cyrn }\IeC {\cyri }\IeC {\cyre } \IeC {\cyrs }\IeC {\cyri }\IeC {\cyrs }\IeC {\cyrt }\IeC {\cyre }\IeC {\cyrm }\IeC {\cyrery } \IeC {\cyrm }\IeC {\cyro }\IeC {\cyrd }\IeC {\cyre }\IeC {\cyrl }\IeC {\cyri }\IeC {\cyrr }\IeC {\cyro }\IeC {\cyrv }\IeC {\cyra }\IeC {\cyrn }\IeC {\cyri }\IeC {\cyrya }}{14}{section.4}
\contentsline {subsection}{\numberline {4.1}\IeC {\CYRP }\IeC {\cyro }\IeC {\cyrd }\IeC {\cyrg }\IeC {\cyro }\IeC {\cyrt }\IeC {\cyro }\IeC {\cyrv }\IeC {\cyrk }\IeC {\cyra } \IeC {\cyrd }\IeC {\cyra }\IeC {\cyrn }\IeC {\cyrn }\IeC {\cyrery }\IeC {\cyrh }}{14}{subsection.4.1}
\contentsline {subsection}{\numberline {4.2}\IeC {\CYRR }\IeC {\cyro }\IeC {\cyrb }\IeC {\cyro }\IeC {\cyrt }\IeC {\cyrery } e-puck2}{15}{subsection.4.2}
\contentsline {subsubsection}{\numberline {4.2.1}\IeC {\CYRB }\IeC {\cyra }\IeC {\cyrz }\IeC {\cyro }\IeC {\cyrv }\IeC {\cyrery }\IeC {\cyrishrt } \IeC {\cyra }\IeC {\cyrl }\IeC {\cyrg }\IeC {\cyro }\IeC {\cyrr }\IeC {\cyri }\IeC {\cyrt }\IeC {\cyrm } \IeC {\cyrd }\IeC {\cyrv }\IeC {\cyri }\IeC {\cyrzh }\IeC {\cyre }\IeC {\cyrn }\IeC {\cyri }\IeC {\cyrya }}{16}{subsubsection.4.2.1}
\contentsline {subsection}{\numberline {4.3}\IeC {\CYRS }\IeC {\cyri }\IeC {\cyrm }\IeC {\cyru }\IeC {\cyrl }\IeC {\cyrya }\IeC {\cyrc }\IeC {\cyri }\IeC {\cyrya } \IeC {\cyrv } Webots}{17}{subsection.4.3}
\contentsline {subsubsection}{\numberline {4.3.1}\IeC {\CYRA }\IeC {\cyrl }\IeC {\cyrg }\IeC {\cyro }\IeC {\cyrr }\IeC {\cyri }\IeC {\cyrt }\IeC {\cyrm } \IeC {\cyrk }\IeC {\cyro }\IeC {\cyrn }\IeC {\cyrs }\IeC {\cyre }\IeC {\cyrn }\IeC {\cyrs }\IeC {\cyru }\IeC {\cyrs }\IeC {\cyra }}{18}{subsubsection.4.3.1}
\contentsline {subsubsection}{\numberline {4.3.2}\IeC {\CYRP }\IeC {\cyrr }\IeC {\cyro }\IeC {\cyrv }\IeC {\cyre }\IeC {\cyrd }\IeC {\cyre }\IeC {\cyrn }\IeC {\cyri }\IeC {\cyre } \IeC {\cyrerev }\IeC {\cyrk }\IeC {\cyrs }\IeC {\cyrp }\IeC {\cyre }\IeC {\cyrr }\IeC {\cyri }\IeC {\cyrm }\IeC {\cyre }\IeC {\cyrn }\IeC {\cyrt }\IeC {\cyra }}{19}{subsubsection.4.3.2}
\contentsline {subsection}{\numberline {4.4}\IeC {\CYRS }\IeC {\cyri }\IeC {\cyrm }\IeC {\cyru }\IeC {\cyrl }\IeC {\cyrya }\IeC {\cyrc }\IeC {\cyri }\IeC {\cyrya } \IeC {\cyri }\IeC {\cyrd }\IeC {\cyre }\IeC {\cyra }\IeC {\cyrl }\IeC {\cyrsftsn }\IeC {\cyrn }\IeC {\cyrery }\IeC {\cyrh } \IeC {\cyru }\IeC {\cyrs }\IeC {\cyrl }\IeC {\cyro }\IeC {\cyrv }\IeC {\cyri }\IeC {\cyrishrt }}{19}{subsection.4.4}
\contentsline {subsection}{\numberline {4.5}\IeC {\CYRO }\IeC {\cyrb }\IeC {\cyrr }\IeC {\cyra }\IeC {\cyrb }\IeC {\cyro }\IeC {\cyrt }\IeC {\cyrk }\IeC {\cyra } \IeC {\cyrd }\IeC {\cyra }\IeC {\cyrn }\IeC {\cyrn }\IeC {\cyrery }\IeC {\cyrh }}{19}{subsection.4.5}
\contentsline {section}{\numberline {5}\IeC {\CYRM }\IeC {\cyro }\IeC {\cyrd }\IeC {\cyre }\IeC {\cyrl }\IeC {\cyri }\IeC {\cyrr }\IeC {\cyro }\IeC {\cyrv }\IeC {\cyra }\IeC {\cyrn }\IeC {\cyri }\IeC {\cyre } \IeC {\cyri } \IeC {\cyrr }\IeC {\cyre }\IeC {\cyrz }\IeC {\cyru }\IeC {\cyrl }\IeC {\cyrsftsn }\IeC {\cyrt }\IeC {\cyra }\IeC {\cyrt }\IeC {\cyrery }}{21}{section.5}
\contentsline {subsection}{\numberline {5.1}\IeC {\CYRP }\IeC {\cyro }\IeC {\cyrs }\IeC {\cyrt }\IeC {\cyra }\IeC {\cyrn }\IeC {\cyro }\IeC {\cyrv }\IeC {\cyrk }\IeC {\cyra } \IeC {\cyrerev }\IeC {\cyrk }\IeC {\cyrs }\IeC {\cyrp }\IeC {\cyre }\IeC {\cyrr }\IeC {\cyri }\IeC {\cyrm }\IeC {\cyre }\IeC {\cyrn }\IeC {\cyrt }\IeC {\cyra }}{21}{subsection.5.1}
\contentsline {subsection}{\numberline {5.2}\IeC {\CYRV }\IeC {\cyrr }\IeC {\cyre }\IeC {\cyrm }\IeC {\cyrya } \IeC {\cyrs }\IeC {\cyrh }\IeC {\cyro }\IeC {\cyrd }\IeC {\cyri }\IeC {\cyrm }\IeC {\cyro }\IeC {\cyrs }\IeC {\cyrt }\IeC {\cyri } \IeC {\cyrr }\IeC {\cyra }\IeC {\cyrz }\IeC {\cyrl }\IeC {\cyri }\IeC {\cyrch }\IeC {\cyrn }\IeC {\cyrery }\IeC {\cyrh } \IeC {\cyra }\IeC {\cyrl }\IeC {\cyrg }\IeC {\cyro }\IeC {\cyrr }\IeC {\cyri }\IeC {\cyrt }\IeC {\cyrm }\IeC {\cyro }\IeC {\cyrv }}{21}{subsection.5.2}
\contentsline {subsection}{\numberline {5.3}\IeC {\CYRV }\IeC {\cyri }\IeC {\cyrz }\IeC {\cyru }\IeC {\cyra }\IeC {\cyrl }\IeC {\cyri }\IeC {\cyrz }\IeC {\cyra }\IeC {\cyrc }\IeC {\cyri }\IeC {\cyrya } \IeC {\cyrv }\IeC {\cyrery }\IeC {\cyrb }\IeC {\cyro }\IeC {\cyrr }\IeC {\cyra } \IeC {\cyrl }\IeC {\cyri }\IeC {\cyrd }\IeC {\cyre }\IeC {\cyrr }\IeC {\cyro }\IeC {\cyrv }}{26}{subsection.5.3}
\contentsline {section}{\numberline {6}\IeC {\CYRZ }\IeC {\cyra }\IeC {\cyrk }\IeC {\cyrl }\IeC {\cyryu }\IeC {\cyrch }\IeC {\cyre }\IeC {\cyrn }\IeC {\cyri }\IeC {\cyre } \IeC {\cyri } \IeC {\cyrv }\IeC {\cyro }\IeC {\cyrz }\IeC {\cyrm }\IeC {\cyro }\IeC {\cyrzh }\IeC {\cyrn }\IeC {\cyrery }\IeC {\cyre } \IeC {\cyrd }\IeC {\cyra }\IeC {\cyrl }\IeC {\cyrsftsn }\IeC {\cyrn }\IeC {\cyre }\IeC {\cyrishrt }\IeC {\cyrsh }\IeC {\cyri }\IeC {\cyre } \IeC {\cyri }\IeC {\cyrs }\IeC {\cyrs }\IeC {\cyrl }\IeC {\cyre }\IeC {\cyrd }\IeC {\cyro }\IeC {\cyrv }\IeC {\cyra }\IeC {\cyrn }\IeC {\cyri }\IeC {\cyrya }}{28}{section.6}
\contentsline {section}{\numberline {7}\IeC {\CYRP }\IeC {\cyrr }\IeC {\cyri }\IeC {\cyrl }\IeC {\cyro }\IeC {\cyrzh }\IeC {\cyre }\IeC {\cyrn }\IeC {\cyri }\IeC {\cyre }}{29}{section.7}
\contentsline {subsection}{\numberline {7.1}\IeC {\CYRP }\IeC {\cyrr }\IeC {\cyri }\IeC {\cyrl }\IeC {\cyro }\IeC {\cyrzh }\IeC {\cyre }\IeC {\cyrn }\IeC {\cyri }\IeC {\cyre } 1. \IeC {\CYRA }\IeC {\cyrl }\IeC {\cyrg }\IeC {\cyro }\IeC {\cyrr }\IeC {\cyri }\IeC {\cyrt }\IeC {\cyrm } \IeC {\cyrv }\IeC {\cyrery }\IeC {\cyrb }\IeC {\cyro }\IeC {\cyrr }\IeC {\cyra } $k$-\IeC {\cyrl }\IeC {\cyri }\IeC {\cyrd }\IeC {\cyre }\IeC {\cyrr }\IeC {\cyro }\IeC {\cyrv } }{29}{subsection.7.1}
\contentsline {section}{\IeC {\CYRS }\IeC {\cyrp }\IeC {\cyri }\IeC {\cyrs }\IeC {\cyro }\IeC {\cyrk } \IeC {\cyri }\IeC {\cyrs }\IeC {\cyrp }\IeC {\cyro }\IeC {\cyrl }\IeC {\cyrsftsn }\IeC {\cyrz }\IeC {\cyru }\IeC {\cyre }\IeC {\cyrm }\IeC {\cyro }\IeC {\cyrishrt } \IeC {\cyrl }\IeC {\cyri }\IeC {\cyrt }\IeC {\cyre }\IeC {\cyrr }\IeC {\cyra }\IeC {\cyrt }\IeC {\cyru }\IeC {\cyrr }\IeC {\cyrery }}{31}{lstnumber.-1.34}
