\relax 
\providecommand\hyper@newdestlabel[2]{}
\catcode `"\active 
\providecommand\HyperFirstAtBeginDocument{\AtBeginDocument}
\HyperFirstAtBeginDocument{\ifx\hyper@anchor\@undefined
\global\let\oldcontentsline\contentsline
\gdef\contentsline#1#2#3#4{\oldcontentsline{#1}{#2}{#3}}
\global\let\oldnewlabel\newlabel
\gdef\newlabel#1#2{\newlabelxx{#1}#2}
\gdef\newlabelxx#1#2#3#4#5#6{\oldnewlabel{#1}{{#2}{#3}}}
\AtEndDocument{\ifx\hyper@anchor\@undefined
\let\contentsline\oldcontentsline
\let\newlabel\oldnewlabel
\fi}
\fi}
\global\let\hyper@last\relax 
\gdef\HyperFirstAtBeginDocument#1{#1}
\providecommand\HyField@AuxAddToFields[1]{}
\providecommand\HyField@AuxAddToCoFields[2]{}
\bibstyle{unsrt}
\babel@aux{russian}{}
\citation{0intro}
\citation{-1intro}
\citation{1intro}
\citation{2intro}
\citation{main-paper}
\citation{4intro}
\citation{3intro}
\@writefile{toc}{\contentsline {section}{\numberline {1}\IeC {\CYRV }\IeC {\cyrv }\IeC {\cyre }\IeC {\cyrd }\IeC {\cyre }\IeC {\cyrn }\IeC {\cyri }\IeC {\cyre }}{4}{section.1}}
\citation{5intro}
\citation{6intro}
\citation{7intro}
\citation{1target}
\citation{main-paper}
\citation{white-noise-example}
\@writefile{toc}{\contentsline {section}{\numberline {2}\IeC {\CYRC }\IeC {\cyre }\IeC {\cyrl }\IeC {\cyrsftsn } \IeC {\cyrr }\IeC {\cyra }\IeC {\cyrb }\IeC {\cyro }\IeC {\cyrt }\IeC {\cyrery }}{6}{section.2}}
\citation{cons-in-mult-ag-sys}
\citation{laplas-matrix}
\citation{cons-in-mult-ag-sys}
\@writefile{toc}{\contentsline {section}{\numberline {3}\IeC {\CYRO }\IeC {\cyrs }\IeC {\cyrn }\IeC {\cyro }\IeC {\cyrv }\IeC {\cyrn }\IeC {\cyrery }\IeC {\cyre } \IeC {\cyro }\IeC {\cyrp }\IeC {\cyrr }\IeC {\cyre }\IeC {\cyrd }\IeC {\cyre }\IeC {\cyrl }\IeC {\cyre }\IeC {\cyrn }\IeC {\cyri }\IeC {\cyrya } \IeC {\cyri } \IeC {\cyrm }\IeC {\cyra }\IeC {\cyrt }\IeC {\cyre }\IeC {\cyrm }\IeC {\cyra }\IeC {\cyrt }\IeC {\cyri }\IeC {\cyrch }\IeC {\cyre }\IeC {\cyrs }\IeC {\cyrk }\IeC {\cyra }\IeC {\cyrya } \IeC {\cyrm }\IeC {\cyro }\IeC {\cyrd }\IeC {\cyre }\IeC {\cyrl }\IeC {\cyrsftsn }}{7}{section.3}}
\@writefile{toc}{\contentsline {subsection}{\numberline {3.1}\IeC {\CYRT }\IeC {\cyre }\IeC {\cyro }\IeC {\cyrr }\IeC {\cyri }\IeC {\cyrya } \IeC {\cyrg }\IeC {\cyrr }\IeC {\cyra }\IeC {\cyrf }\IeC {\cyro }\IeC {\cyrv }}{7}{subsection.3.1}}
\newlabel{grafh.def}{{1}{7}{}{definition.1}{}}
\newlabel{weighted.def}{{2}{7}{}{definition.2}{}}
\newlabel{laplas.def}{{3}{7}{}{definition.3}{}}
\newlabel{laplas-eq.def}{{1}{7}{}{equation.3.1}{}}
\citation{ex-cons-1}
\citation{ex-cons-2}
\@writefile{toc}{\contentsline {subsection}{\numberline {3.2}\IeC {\CYRM }\IeC {\cyro }\IeC {\cyrd }\IeC {\cyre }\IeC {\cyrl }\IeC {\cyrsftsn } \IeC {\CYRF }\IeC {\cyrr }\IeC {\cyre }\IeC {\cyrn }\IeC {\cyrch }-\IeC {\cyrd }\IeC {\cyre }\IeC {\CYRG }\IeC {\cyrr }\IeC {\cyro }\IeC {\cyro }\IeC {\cyrt }\IeC {\cyra }}{8}{subsection.3.2}}
\newlabel{French-DeGroot.eq}{{2}{8}{Модель Френч-деГроота}{equation.3.2}{}}
\newlabel{consensus.def}{{4}{8}{}{definition.4}{}}
\newlabel{consensus.eq}{{3}{8}{}{equation.3.3}{}}
\citation{main-paper}
\@writefile{toc}{\contentsline {subsubsection}{\numberline {3.2.1}\IeC {\CYRN }\IeC {\cyre }\IeC {\cyrp }\IeC {\cyrr }\IeC {\cyre }\IeC {\cyrr }\IeC {\cyrery }\IeC {\cyrv }\IeC {\cyrn }\IeC {\cyra }\IeC {\cyrya } \IeC {\cyrm }\IeC {\cyro }\IeC {\cyrd }\IeC {\cyre }\IeC {\cyrl }\IeC {\cyrsftsn }}{9}{subsubsection.3.2.1}}
\newlabel{cont-cons-al.def}{{4}{9}{Непрерывная модель}{equation.3.4}{}}
\newlabel{cont-cons-al-lap.def}{{5}{9}{Непрерывная модель}{equation.3.5}{}}
\newlabel{cont-cons-al-lap-mat.def}{{6}{9}{Непрерывная модель}{equation.3.6}{}}
\@writefile{toc}{\contentsline {subsection}{\numberline {3.3}\IeC {\CYRO }\IeC {\cyrp }\IeC {\cyri }\IeC {\cyrs }\IeC {\cyra }\IeC {\cyrn }\IeC {\cyri }\IeC {\cyre } \IeC {\cyrs }\IeC {\cyri }\IeC {\cyrs }\IeC {\cyrt }\IeC {\cyre }\IeC {\cyrm }\IeC {\cyrery }}{9}{subsection.3.3}}
\citation{main-paper}
\citation{main-paper}
\citation{big-book}
\@writefile{toc}{\contentsline {subsection}{\numberline {3.4}\IeC {\CYRS }\IeC {\cyrh }\IeC {\cyro }\IeC {\cyrd }\IeC {\cyri }\IeC {\cyrm }\IeC {\cyro }\IeC {\cyrs }\IeC {\cyrt }\IeC {\cyrsftsn } \IeC {\cyra }\IeC {\cyrl }\IeC {\cyrg }\IeC {\cyro }\IeC {\cyrr }\IeC {\cyri }\IeC {\cyrt }\IeC {\cyrm }\IeC {\cyra } \IeC {\cyrk }\IeC {\cyro }\IeC {\cyrn }\IeC {\cyrs }\IeC {\cyre }\IeC {\cyrn }\IeC {\cyrs }\IeC {\cyru }\IeC {\cyrs }\IeC {\cyra }}{10}{subsection.3.4}}
\newlabel{lemma-cond}{{1}{10}{}{lemma.1}{}}
\@writefile{toc}{\contentsline {subsection}{\numberline {3.5}\IeC {\CYRP }\IeC {\cyro }\IeC {\cyrs }\IeC {\cyrt }\IeC {\cyra }\IeC {\cyrn }\IeC {\cyro }\IeC {\cyrv }\IeC {\cyrk }\IeC {\cyra } \IeC {\cyrz }\IeC {\cyra }\IeC {\cyrd }\IeC {\cyra }\IeC {\cyrch }\IeC {\cyri } \IeC {\cyrv }\IeC {\cyrery }\IeC {\cyrb }\IeC {\cyro }\IeC {\cyrr }\IeC {\cyra } \IeC {\cyrl }\IeC {\cyri }\IeC {\cyrd }\IeC {\cyre }\IeC {\cyrr }\IeC {\cyro }\IeC {\cyrv }}{10}{subsection.3.5}}
\newlabel{pr3.6}{{3.5}{10}{Постановка задачи выбора лидеров}{subsection.3.5}{}}
\@writefile{toc}{\contentsline {subsubsection}{\numberline {3.5.1}\IeC {\CYRT }\IeC {\cyre }\IeC {\cyro }\IeC {\cyrr }\IeC {\cyre }\IeC {\cyrt }\IeC {\cyri }\IeC {\cyrch }\IeC {\cyre }\IeC {\cyrs }\IeC {\cyrk }\IeC {\cyri }\IeC {\cyre } \IeC {\cyrr }\IeC {\cyre }\IeC {\cyrz }\IeC {\cyru }\IeC {\cyrl }\IeC {\cyrsftsn }\IeC {\cyrt }\IeC {\cyra }\IeC {\cyrt }\IeC {\cyrery }}{10}{subsubsection.3.5.1}}
\newlabel{sub:3.5.1}{{3.5.1}{10}{Теоретические результаты}{subsubsection.3.5.1}{}}
\newlabel{main-prob.eq}{{7}{11}{Теоретические результаты}{equation.3.7}{}}
\@writefile{toc}{\contentsline {subsubsection}{\numberline {3.5.2}\IeC {\CYRA }\IeC {\cyrl }\IeC {\cyrg }\IeC {\cyro }\IeC {\cyrr }\IeC {\cyri }\IeC {\cyrt }\IeC {\cyrm } \IeC {\cyrv }\IeC {\cyrery }\IeC {\cyrb }\IeC {\cyro }\IeC {\cyrr }\IeC {\cyra } \IeC {\cyrl }\IeC {\cyri }\IeC {\cyrd }\IeC {\cyre }\IeC {\cyrr }\IeC {\cyro }\IeC {\cyrv }}{12}{subsubsection.3.5.2}}
\citation{white-noise-example}
\@writefile{toc}{\contentsline {subsection}{\numberline {3.6}\IeC {\CYRB }\IeC {\cyre }\IeC {\cyrl }\IeC {\cyrery }\IeC {\cyrishrt } \IeC {\cyrsh }\IeC {\cyru }\IeC {\cyrm } \IeC {\cyrv } \IeC {\cyrs }\IeC {\cyri }\IeC {\cyrs }\IeC {\cyrt }\IeC {\cyre }\IeC {\cyrm }\IeC {\cyre }}{13}{subsection.3.6}}
\newlabel{cont-cons-al-with-n.def}{{8}{13}{Белый шум в системе}{equation.3.8}{}}
\citation{Webots}
\@writefile{toc}{\contentsline {section}{\numberline {4}\IeC {\CYRO }\IeC {\cyrp }\IeC {\cyri }\IeC {\cyrs }\IeC {\cyra }\IeC {\cyrn }\IeC {\cyri }\IeC {\cyre } \IeC {\cyrs }\IeC {\cyri }\IeC {\cyrs }\IeC {\cyrt }\IeC {\cyre }\IeC {\cyrm }\IeC {\cyrery } \IeC {\cyrm }\IeC {\cyro }\IeC {\cyrd }\IeC {\cyre }\IeC {\cyrl }\IeC {\cyri }\IeC {\cyrr }\IeC {\cyro }\IeC {\cyrv }\IeC {\cyra }\IeC {\cyrn }\IeC {\cyri }\IeC {\cyrya }}{14}{section.4}}
\@writefile{toc}{\contentsline {subsection}{\numberline {4.1}\IeC {\CYRP }\IeC {\cyro }\IeC {\cyrd }\IeC {\cyrg }\IeC {\cyro }\IeC {\cyrt }\IeC {\cyro }\IeC {\cyrv }\IeC {\cyrk }\IeC {\cyra } \IeC {\cyrd }\IeC {\cyra }\IeC {\cyrn }\IeC {\cyrn }\IeC {\cyrery }\IeC {\cyrh }}{14}{subsection.4.1}}
\citation{Floyed_wor}
\citation{GCtronic}
\@writefile{toc}{\contentsline {subsection}{\numberline {4.2}\IeC {\CYRR }\IeC {\cyro }\IeC {\cyrb }\IeC {\cyro }\IeC {\cyrt }\IeC {\cyrery } e-puck2}{15}{subsection.4.2}}
\citation{loc-1}
\citation{loc-2}
\@writefile{lof}{\contentsline {figure}{\numberline {1}{\ignorespaces \IeC {\CYRM }\IeC {\cyro }\IeC {\cyrb }\IeC {\cyri }\IeC {\cyrl }\IeC {\cyrsftsn }\IeC {\cyrn }\IeC {\cyrery }\IeC {\cyrishrt } \IeC {\cyrr }\IeC {\cyro }\IeC {\cyrb }\IeC {\cyro }\IeC {\cyrt } e-puck2}}{16}{figure.1}}
\newlabel{fig:e-puck2}{{1}{16}{Мобильный робот e-puck2}{figure.1}{}}
\@writefile{toc}{\contentsline {subsubsection}{\numberline {4.2.1}\IeC {\CYRB }\IeC {\cyra }\IeC {\cyrz }\IeC {\cyro }\IeC {\cyrv }\IeC {\cyrery }\IeC {\cyrishrt } \IeC {\cyra }\IeC {\cyrl }\IeC {\cyrg }\IeC {\cyro }\IeC {\cyrr }\IeC {\cyri }\IeC {\cyrt }\IeC {\cyrm } \IeC {\cyrd }\IeC {\cyrv }\IeC {\cyri }\IeC {\cyrzh }\IeC {\cyre }\IeC {\cyrn }\IeC {\cyri }\IeC {\cyrya }}{16}{subsubsection.4.2.1}}
\@writefile{toc}{\contentsline {subsection}{\numberline {4.3}\IeC {\CYRS }\IeC {\cyri }\IeC {\cyrm }\IeC {\cyru }\IeC {\cyrl }\IeC {\cyrya }\IeC {\cyrc }\IeC {\cyri }\IeC {\cyrya } \IeC {\cyrv } Webots}{17}{subsection.4.3}}
\@writefile{lof}{\contentsline {figure}{\numberline {2}{\ignorespaces \IeC {\CYRS }\IeC {\cyri }\IeC {\cyrm }\IeC {\cyru }\IeC {\cyrl }\IeC {\cyrya }\IeC {\cyrc }\IeC {\cyri }\IeC {\cyrya } \IeC {\cyrm }\IeC {\cyro }\IeC {\cyrb }\IeC {\cyri }\IeC {\cyrl }\IeC {\cyrsftsn }\IeC {\cyrn }\IeC {\cyro }\IeC {\cyrg }\IeC {\cyro } \IeC {\cyrr }\IeC {\cyro }\IeC {\cyrb }\IeC {\cyro }\IeC {\cyrt }\IeC {\cyra } e-puck2}}{18}{figure.2}}
\newlabel{fig:sim-e-puck2}{{2}{18}{Симуляция мобильного робота e-puck2}{figure.2}{}}
\@writefile{toc}{\contentsline {subsubsection}{\numberline {4.3.1}\IeC {\CYRA }\IeC {\cyrl }\IeC {\cyrg }\IeC {\cyro }\IeC {\cyrr }\IeC {\cyri }\IeC {\cyrt }\IeC {\cyrm } \IeC {\cyrk }\IeC {\cyro }\IeC {\cyrn }\IeC {\cyrs }\IeC {\cyre }\IeC {\cyrn }\IeC {\cyrs }\IeC {\cyru }\IeC {\cyrs }\IeC {\cyra }}{18}{subsubsection.4.3.1}}
\@writefile{toc}{\contentsline {subsubsection}{\numberline {4.3.2}\IeC {\CYRP }\IeC {\cyrr }\IeC {\cyro }\IeC {\cyrv }\IeC {\cyre }\IeC {\cyrd }\IeC {\cyre }\IeC {\cyrn }\IeC {\cyri }\IeC {\cyre } \IeC {\cyrerev }\IeC {\cyrk }\IeC {\cyrs }\IeC {\cyrp }\IeC {\cyre }\IeC {\cyrr }\IeC {\cyri }\IeC {\cyrm }\IeC {\cyre }\IeC {\cyrn }\IeC {\cyrt }\IeC {\cyra }}{19}{subsubsection.4.3.2}}
\@writefile{toc}{\contentsline {subsection}{\numberline {4.4}\IeC {\CYRS }\IeC {\cyri }\IeC {\cyrm }\IeC {\cyru }\IeC {\cyrl }\IeC {\cyrya }\IeC {\cyrc }\IeC {\cyri }\IeC {\cyrya } \IeC {\cyri }\IeC {\cyrd }\IeC {\cyre }\IeC {\cyra }\IeC {\cyrl }\IeC {\cyrsftsn }\IeC {\cyrn }\IeC {\cyrery }\IeC {\cyrh } \IeC {\cyru }\IeC {\cyrs }\IeC {\cyrl }\IeC {\cyro }\IeC {\cyrv }\IeC {\cyri }\IeC {\cyrishrt }}{19}{subsection.4.4}}
\@writefile{toc}{\contentsline {subsection}{\numberline {4.5}\IeC {\CYRO }\IeC {\cyrb }\IeC {\cyrr }\IeC {\cyra }\IeC {\cyrb }\IeC {\cyro }\IeC {\cyrt }\IeC {\cyrk }\IeC {\cyra } \IeC {\cyrd }\IeC {\cyra }\IeC {\cyrn }\IeC {\cyrn }\IeC {\cyrery }\IeC {\cyrh }}{19}{subsection.4.5}}
\@writefile{toc}{\contentsline {section}{\numberline {5}\IeC {\CYRM }\IeC {\cyro }\IeC {\cyrd }\IeC {\cyre }\IeC {\cyrl }\IeC {\cyri }\IeC {\cyrr }\IeC {\cyro }\IeC {\cyrv }\IeC {\cyra }\IeC {\cyrn }\IeC {\cyri }\IeC {\cyre } \IeC {\cyri } \IeC {\cyrr }\IeC {\cyre }\IeC {\cyrz }\IeC {\cyru }\IeC {\cyrl }\IeC {\cyrsftsn }\IeC {\cyrt }\IeC {\cyra }\IeC {\cyrt }\IeC {\cyrery }}{21}{section.5}}
\@writefile{toc}{\contentsline {subsection}{\numberline {5.1}\IeC {\CYRP }\IeC {\cyro }\IeC {\cyrs }\IeC {\cyrt }\IeC {\cyra }\IeC {\cyrn }\IeC {\cyro }\IeC {\cyrv }\IeC {\cyrk }\IeC {\cyra } \IeC {\cyrerev }\IeC {\cyrk }\IeC {\cyrs }\IeC {\cyrp }\IeC {\cyre }\IeC {\cyrr }\IeC {\cyri }\IeC {\cyrm }\IeC {\cyre }\IeC {\cyrn }\IeC {\cyrt }\IeC {\cyra }}{21}{subsection.5.1}}
\newlabel{sub:5.1}{{5.1}{21}{Постановка эксперимента}{subsection.5.1}{}}
\@writefile{toc}{\contentsline {subsection}{\numberline {5.2}\IeC {\CYRV }\IeC {\cyrr }\IeC {\cyre }\IeC {\cyrm }\IeC {\cyrya } \IeC {\cyrs }\IeC {\cyrh }\IeC {\cyro }\IeC {\cyrd }\IeC {\cyri }\IeC {\cyrm }\IeC {\cyro }\IeC {\cyrs }\IeC {\cyrt }\IeC {\cyri } \IeC {\cyrr }\IeC {\cyra }\IeC {\cyrz }\IeC {\cyrl }\IeC {\cyri }\IeC {\cyrch }\IeC {\cyrn }\IeC {\cyrery }\IeC {\cyrh } \IeC {\cyra }\IeC {\cyrl }\IeC {\cyrg }\IeC {\cyro }\IeC {\cyrr }\IeC {\cyri }\IeC {\cyrt }\IeC {\cyrm }\IeC {\cyro }\IeC {\cyrv }}{21}{subsection.5.2}}
\newlabel{main-exp-sec}{{5.2}{21}{Время сходимости различных алгоритмов}{subsection.5.2}{}}
\@writefile{lof}{\contentsline {figure}{\numberline {3}{\ignorespaces \IeC {\CYREREV }\IeC {\cyrk }\IeC {\cyrs }\IeC {\cyrp }\IeC {\cyre }\IeC {\cyrr }\IeC {\cyri }\IeC {\cyrm }\IeC {\cyre }\IeC {\cyrn }\IeC {\cyrt } \IeC {\cyrb }\IeC {\cyre }\IeC {\cyrz } \IeC {\cyrf }\IeC {\cyri }\IeC {\cyrz }\IeC {\cyri }\IeC {\cyrch }\IeC {\cyre }\IeC {\cyrs }\IeC {\cyrk }\IeC {\cyri }\IeC {\cyrh } \IeC {\cyro }\IeC {\cyrg }\IeC {\cyrr }\IeC {\cyra }\IeC {\cyrn }\IeC {\cyri }\IeC {\cyrch }\IeC {\cyre }\IeC {\cyrn }\IeC {\cyri }\IeC {\cyrishrt } \IeC {\cyrb }\IeC {\cyre }\IeC {\cyrz } \IeC {\cyrb }\IeC {\cyre }\IeC {\cyrl }\IeC {\cyro }\IeC {\cyrg }\IeC {\cyro } \IeC {\cyrsh }\IeC {\cyru }\IeC {\cyrm }\IeC {\cyra }}}{22}{figure.3}}
\newlabel{fig:30-no-l}{{3}{22}{Эксперимент без физических ограничений без белого шума}{figure.3}{}}
\@writefile{lof}{\contentsline {figure}{\numberline {4}{\ignorespaces \IeC {\CYREREV }\IeC {\cyrk }\IeC {\cyrs }\IeC {\cyrp }\IeC {\cyre }\IeC {\cyrr }\IeC {\cyri }\IeC {\cyrm }\IeC {\cyre }\IeC {\cyrn }\IeC {\cyrt } \IeC {\cyrs } \IeC {\cyrf }\IeC {\cyri }\IeC {\cyrz }\IeC {\cyri }\IeC {\cyrch }\IeC {\cyre }\IeC {\cyrs }\IeC {\cyrk }\IeC {\cyri }\IeC {\cyrm }\IeC {\cyri } \IeC {\cyro }\IeC {\cyrg }\IeC {\cyrr }\IeC {\cyra }\IeC {\cyrn }\IeC {\cyri }\IeC {\cyrch }\IeC {\cyre }\IeC {\cyrn }\IeC {\cyri }\IeC {\cyrya }\IeC {\cyrm }\IeC {\cyri } \IeC {\cyrn }\IeC {\cyra } \IeC {\cyrs }\IeC {\cyrk }\IeC {\cyro }\IeC {\cyrr }\IeC {\cyro }\IeC {\cyrs }\IeC {\cyrt }\IeC {\cyri } \IeC {\cyrb }\IeC {\cyre }\IeC {\cyrz } \IeC {\cyrb }\IeC {\cyre }\IeC {\cyrl }\IeC {\cyro }\IeC {\cyrg }\IeC {\cyro } \IeC {\cyrsh }\IeC {\cyru }\IeC {\cyrm }\IeC {\cyra }.}}{23}{figure.4}}
\newlabel{fig:30-with-l}{{4}{23}{Эксперимент с физическими ограничениями на скорости без белого шума}{figure.4}{}}
\@writefile{lof}{\contentsline {figure}{\numberline {5}{\ignorespaces \IeC {\CYREREV }\IeC {\cyrk }\IeC {\cyrs }\IeC {\cyrp }\IeC {\cyre }\IeC {\cyrr }\IeC {\cyri }\IeC {\cyrm }\IeC {\cyre }\IeC {\cyrn }\IeC {\cyrt } \IeC {\cyrb }\IeC {\cyre }\IeC {\cyrz } \IeC {\cyrf }\IeC {\cyri }\IeC {\cyrz }\IeC {\cyri }\IeC {\cyrch }\IeC {\cyre }\IeC {\cyrs }\IeC {\cyrk }\IeC {\cyri }\IeC {\cyrh } \IeC {\cyro }\IeC {\cyrg }\IeC {\cyrr }\IeC {\cyra }\IeC {\cyrn }\IeC {\cyri }\IeC {\cyrch }\IeC {\cyre }\IeC {\cyrn }\IeC {\cyri }\IeC {\cyrishrt } \IeC {\cyrs } \IeC {\cyrb }\IeC {\cyre }\IeC {\cyrl }\IeC {\cyrery }\IeC {\cyrm } \IeC {\cyrsh }\IeC {\cyru }\IeC {\cyrm }\IeC {\cyro }\IeC {\cyrm }}}{23}{figure.5}}
\newlabel{fig:30-no-l-with-n}{{5}{23}{Эксперимент без физических ограничений с белым шумом}{figure.5}{}}
\citation{main-paper}
\@writefile{lof}{\contentsline {figure}{\numberline {6}{\ignorespaces \IeC {\CYREREV }\IeC {\cyrk }\IeC {\cyrs }\IeC {\cyrp }\IeC {\cyre }\IeC {\cyrr }\IeC {\cyri }\IeC {\cyrm }\IeC {\cyre }\IeC {\cyrn }\IeC {\cyrt } \IeC {\cyrs } \IeC {\cyrf }\IeC {\cyri }\IeC {\cyrz }\IeC {\cyri }\IeC {\cyrch }\IeC {\cyre }\IeC {\cyrs }\IeC {\cyrk }\IeC {\cyri }\IeC {\cyrm }\IeC {\cyri } \IeC {\cyro }\IeC {\cyrg }\IeC {\cyrr }\IeC {\cyra }\IeC {\cyrn }\IeC {\cyri }\IeC {\cyrch }\IeC {\cyre }\IeC {\cyrn }\IeC {\cyri }\IeC {\cyrya }\IeC {\cyrm }\IeC {\cyri } \IeC {\cyrn }\IeC {\cyra } \IeC {\cyrs }\IeC {\cyrk }\IeC {\cyro }\IeC {\cyrr }\IeC {\cyro }\IeC {\cyrs }\IeC {\cyrt }\IeC {\cyri } \IeC {\cyrs } \IeC {\cyrb }\IeC {\cyre }\IeC {\cyrl }\IeC {\cyrery }\IeC {\cyrm } \IeC {\cyrsh }\IeC {\cyru }\IeC {\cyrm }\IeC {\cyro }\IeC {\cyrm }.}}{24}{figure.6}}
\newlabel{fig:30-with-l-with-n}{{6}{24}{Эксперимент с физическими ограничениями на скорости с белым шумом}{figure.6}{}}
\citation{main-paper}
\@writefile{lof}{\contentsline {figure}{\numberline {7}{\ignorespaces \IeC {\CYREREV }\IeC {\cyrk }\IeC {\cyrs }\IeC {\cyrp }\IeC {\cyre }\IeC {\cyrr }\IeC {\cyri }\IeC {\cyrm }\IeC {\cyre }\IeC {\cyrn }\IeC {\cyrt } \IeC {\cyrs } \IeC {\cyrf }\IeC {\cyri }\IeC {\cyrz }\IeC {\cyri }\IeC {\cyrch }\IeC {\cyre }\IeC {\cyrs }\IeC {\cyrk }\IeC {\cyri }\IeC {\cyrm }\IeC {\cyri } \IeC {\cyro }\IeC {\cyrg }\IeC {\cyrr }\IeC {\cyra }\IeC {\cyrn }\IeC {\cyri }\IeC {\cyrch }\IeC {\cyre }\IeC {\cyrn }\IeC {\cyri }\IeC {\cyrya }\IeC {\cyrm }\IeC {\cyri } \IeC {\cyrn }\IeC {\cyra } \IeC {\cyrs }\IeC {\cyrk }\IeC {\cyro }\IeC {\cyrr }\IeC {\cyro }\IeC {\cyrs }\IeC {\cyrt }\IeC {\cyri } \IeC {\cyrs } \IeC {\cyrb }\IeC {\cyre }\IeC {\cyrl }\IeC {\cyrery }\IeC {\cyrm } \IeC {\cyrsh }\IeC {\cyru }\IeC {\cyrm }\IeC {\cyro }\IeC {\cyrm }.}}{25}{figure.7}}
\newlabel{fig:30-with-l-no-n-with-cloud}{{7}{25}{Эксперимент с физическими ограничениями на скорости с белым шумом}{figure.7}{}}
\@writefile{toc}{\contentsline {subsection}{\numberline {5.3}\IeC {\CYRV }\IeC {\cyri }\IeC {\cyrz }\IeC {\cyru }\IeC {\cyra }\IeC {\cyrl }\IeC {\cyri }\IeC {\cyrz }\IeC {\cyra }\IeC {\cyrc }\IeC {\cyri }\IeC {\cyrya } \IeC {\cyrv }\IeC {\cyrery }\IeC {\cyrb }\IeC {\cyro }\IeC {\cyrr }\IeC {\cyra } \IeC {\cyrl }\IeC {\cyri }\IeC {\cyrd }\IeC {\cyre }\IeC {\cyrr }\IeC {\cyro }\IeC {\cyrv }}{26}{subsection.5.3}}
\@writefile{lof}{\contentsline {figure}{\numberline {8}{\ignorespaces 5 \IeC {\cyrl }\IeC {\cyri }\IeC {\cyrd }\IeC {\cyre }\IeC {\cyrr }\IeC {\cyro }\IeC {\cyrv } (\IeC {\cyrz }\IeC {\cyre }\IeC {\cyrl }\IeC {\cyre }\IeC {\cyrn }\IeC {\cyrery }\IeC {\cyre } \IeC {\cyrt }\IeC {\cyro }\IeC {\cyrch }\IeC {\cyrk }\IeC {\cyri }), 60 \IeC {\cyra }\IeC {\cyrg }\IeC {\cyre }\IeC {\cyrn }\IeC {\cyrt }\IeC {\cyro }\IeC {\cyrv }}}{26}{figure.8}}
\newlabel{fig:graph}{{8}{26}{5 лидеров (зеленые точки), 60 агентов}{figure.8}{}}
\citation{main-paper}
\@writefile{toc}{\contentsline {section}{\numberline {6}\IeC {\CYRZ }\IeC {\cyra }\IeC {\cyrk }\IeC {\cyrl }\IeC {\cyryu }\IeC {\cyrch }\IeC {\cyre }\IeC {\cyrn }\IeC {\cyri }\IeC {\cyre } \IeC {\cyri } \IeC {\cyrv }\IeC {\cyro }\IeC {\cyrz }\IeC {\cyrm }\IeC {\cyro }\IeC {\cyrzh }\IeC {\cyrn }\IeC {\cyrery }\IeC {\cyre } \IeC {\cyrd }\IeC {\cyra }\IeC {\cyrl }\IeC {\cyrsftsn }\IeC {\cyrn }\IeC {\cyre }\IeC {\cyrishrt }\IeC {\cyrsh }\IeC {\cyri }\IeC {\cyre } \IeC {\cyri }\IeC {\cyrs }\IeC {\cyrs }\IeC {\cyrl }\IeC {\cyre }\IeC {\cyrd }\IeC {\cyro }\IeC {\cyrv }\IeC {\cyra }\IeC {\cyrn }\IeC {\cyri }\IeC {\cyrya }}{28}{section.6}}
\@writefile{toc}{\contentsline {section}{\numberline {7}\IeC {\CYRP }\IeC {\cyrr }\IeC {\cyri }\IeC {\cyrl }\IeC {\cyro }\IeC {\cyrzh }\IeC {\cyre }\IeC {\cyrn }\IeC {\cyri }\IeC {\cyre }}{29}{section.7}}
\@writefile{toc}{\contentsline {subsection}{\numberline {7.1}\IeC {\CYRP }\IeC {\cyrr }\IeC {\cyri }\IeC {\cyrl }\IeC {\cyro }\IeC {\cyrzh }\IeC {\cyre }\IeC {\cyrn }\IeC {\cyri }\IeC {\cyre } 1. \IeC {\CYRA }\IeC {\cyrl }\IeC {\cyrg }\IeC {\cyro }\IeC {\cyrr }\IeC {\cyri }\IeC {\cyrt }\IeC {\cyrm } \IeC {\cyrv }\IeC {\cyrery }\IeC {\cyrb }\IeC {\cyro }\IeC {\cyrr }\IeC {\cyra } $k$-\IeC {\cyrl }\IeC {\cyri }\IeC {\cyrd }\IeC {\cyre }\IeC {\cyrr }\IeC {\cyro }\IeC {\cyrv } }{29}{subsection.7.1}}
\newlabel{add1.pr}{{7.1}{29}{Приложение 1. Алгоритм выбора $k$-лидеров }{subsection.7.1}{}}
\bibcite{0intro}{1}
\bibcite{-1intro}{2}
\bibcite{1intro}{3}
\bibcite{2intro}{4}
\bibcite{3intro}{5}
\bibcite{4intro}{6}
\bibcite{5intro}{7}
\bibcite{6intro}{8}
\bibcite{7intro}{9}
\bibcite{1target}{10}
\bibcite{main-paper}{11}
\@writefile{toc}{\contentsline {section}{\IeC {\CYRS }\IeC {\cyrp }\IeC {\cyri }\IeC {\cyrs }\IeC {\cyro }\IeC {\cyrk } \IeC {\cyri }\IeC {\cyrs }\IeC {\cyrp }\IeC {\cyro }\IeC {\cyrl }\IeC {\cyrsftsn }\IeC {\cyrz }\IeC {\cyru }\IeC {\cyre }\IeC {\cyrm }\IeC {\cyro }\IeC {\cyrishrt } \IeC {\cyrl }\IeC {\cyri }\IeC {\cyrt }\IeC {\cyre }\IeC {\cyrr }\IeC {\cyra }\IeC {\cyrt }\IeC {\cyru }\IeC {\cyrr }\IeC {\cyrery }}{31}{lstnumber.-1.34}}
\bibcite{cons-in-mult-ag-sys}{12}
\bibcite{white-noise-example}{13}
\bibcite{big-book}{14}
\bibcite{ex-cons-1}{15}
\bibcite{ex-cons-2}{16}
\bibcite{laplas-matrix}{17}
\bibcite{Floyed_wor}{18}
\bibcite{Webots}{19}
\bibcite{GCtronic}{20}
\bibcite{loc-1}{21}
\bibcite{loc-2}{22}
